…
Now 11-04 based on DST dataset

 > during_dst_nov_burn
# A tibble: 3,226 x 4
   creationDate              startDate                 endDate                   value
   <chr>                     <chr>                     <chr>                     <dbl>
 1 2018-11-04 00:13:58 -0400 2018-11-04 00:08:03 -0400 2018-11-04 00:08:23 -0400 0.043
 2 2018-11-04 00:13:58 -0400 2018-11-04 00:09:14 -0400 2018-11-04 00:09:24 -0400 0.154
 3 2018-11-04 00:35:30 -0400 2018-11-04 00:16:54 -0400 2018-11-04 00:17:05 -0400 0.155
 4 2018-11-04 00:35:30 -0400 2018-11-04 00:19:48 -0400 2018-11-04 00:20:19 -0400 0.2
 5 2018-11-04 00:55:02 -0400 2018-11-04 00:51:31 -0400 2018-11-04 00:52:33 -0400 0.238
 6 2018-11-04 01:05:55 -0400 2018-11-04 00:54:25 -0400 2018-11-04 00:54:56 -0400 0.116
 7 2018-11-04 01:13:44 -0400 2018-11-04 00:54:56 -0400 2018-11-04 00:55:27 -0400 0.194
 8 2018-11-04 01:35:16 -0400 2018-11-04 01:17:16 -0400 2018-11-04 01:17:47 -0400 0.5
 9 2018-11-04 01:35:17 -0400 2018-11-04 01:30:55 -0400 2018-11-04 01:31:15 -0400 0.049
10 2018-11-04 01:47:44 -0400 2018-11-04 01:41:19 -0400 2018-11-04 01:41:49 -0400 0.092
# … with 3,216 more rows
…
